<?xml version="1.0" encoding="UTF-8"?>
<testsuite name="UsergetRunner" tests="2" skipped="0" failures="0" errors="0" timestamp="2023-08-04T15:18:34" hostname="ALEJANDRO" time="12.525">
  <properties/>
  <testcase name="[1:3] Get a user" classname="UsergetRunner" time="8.566"/>
  <testcase name="[2:9] Get a list of user" classname="UsergetRunner" time="3.956"/>
  <system-out><![CDATA[10:18:40.288 [Test worker] DEBUG com.intuit.karate - request:
1 > GET https://reqres.in//api/users/2
1 > Host: reqres.in
1 > Connection: Keep-Alive
1 > User-Agent: Apache-HttpClient/4.5.13 (Java/1.8.0_372)
1 > Accept-Encoding: gzip,deflate


10:18:42.664 [Test worker] DEBUG com.intuit.karate - response time in milliseconds: 2343
1 < 200
1 < Date: Fri, 04 Aug 2023 15:18:42 GMT
1 < Content-Type: application/json; charset=utf-8
1 < Transfer-Encoding: chunked
1 < Connection: keep-alive
1 < X-Powered-By: Express
1 < Access-Control-Allow-Origin: *
1 < Etag: W/"118-pbdwwFo9SKNhD3Lx5iHJyngpq00"
1 < Via: 1.1 vegur
1 < Cache-Control: max-age=14400
1 < CF-Cache-Status: REVALIDATED
1 < Report-To: {"endpoints":[{"url":"https:\/\/a.nel.cloudflare.com\/report\/v3?s=C%2F4xkfxJ50m3UEDFnEyVRFpHLxCQjiwxDUtVfPBEyRwnkeZLwMOyOxhJvRhtzWe2%2FH6ipJ%2BYEZEN9JlUIVXlZdVSd66Ql0X2l7UKj1OOikZ4HaS9B1EiN5ee0A%3D%3D"}],"group":"cf-nel","max_age":604800}
1 < NEL: {"success_fraction":0,"report_to":"cf-nel","max_age":604800}
1 < Vary: Accept-Encoding
1 < Server: cloudflare
1 < CF-RAY: 7f17c6426e71221e-MIA
{"data":{"id":2,"email":"janet.weaver@reqres.in","first_name":"Janet","last_name":"Weaver","avatar":"https://reqres.in/img/faces/2-image.jpg"},"support":{"url":"https://reqres.in/#support-heading","text":"To keep ReqRes free, contributions towards server costs are appreciated!"}}

10:18:43.332 [Test worker] DEBUG com.intuit.karate - request:
1 > GET https://reqres.in/api/users?page=1
1 > Host: reqres.in
1 > Connection: Keep-Alive
1 > User-Agent: Apache-HttpClient/4.5.13 (Java/1.8.0_372)
1 > Accept-Encoding: gzip,deflate


10:18:43.926 [Test worker] DEBUG com.intuit.karate - response time in milliseconds: 594
1 < 200
1 < Date: Fri, 04 Aug 2023 15:18:43 GMT
1 < Content-Type: application/json; charset=utf-8
1 < Transfer-Encoding: chunked
1 < Connection: keep-alive
1 < X-Powered-By: Express
1 < Access-Control-Allow-Origin: *
1 < Etag: W/"3e4-2RLXvr5wTg9YQ6aH95CkYoFNuO8"
1 < Via: 1.1 vegur
1 < Cache-Control: max-age=14400
1 < CF-Cache-Status: REVALIDATED
1 < Report-To: {"endpoints":[{"url":"https:\/\/a.nel.cloudflare.com\/report\/v3?s=meyVIqs7YPa%2BybpHD3SpHLrTbZ87Kp6K%2BU0qBLSOHtifYHKOj8KZIGDywi8VLQaCXaw%2FqHjWXpNokSnFoD2orK14sKu7E82UmTieHvL9fZtcZcwYcXgQL0MSKA%3D%3D"}],"group":"cf-nel","max_age":604800}
1 < NEL: {"success_fraction":0,"report_to":"cf-nel","max_age":604800}
1 < Vary: Accept-Encoding
1 < Server: cloudflare
1 < CF-RAY: 7f17c649f8484c1f-MIA
{"page":1,"per_page":6,"total":12,"total_pages":2,"data":[{"id":1,"email":"george.bluth@reqres.in","first_name":"George","last_name":"Bluth","avatar":"https://reqres.in/img/faces/1-image.jpg"},{"id":2,"email":"janet.weaver@reqres.in","first_name":"Janet","last_name":"Weaver","avatar":"https://reqres.in/img/faces/2-image.jpg"},{"id":3,"email":"emma.wong@reqres.in","first_name":"Emma","last_name":"Wong","avatar":"https://reqres.in/img/faces/3-image.jpg"},{"id":4,"email":"eve.holt@reqres.in","first_name":"Eve","last_name":"Holt","avatar":"https://reqres.in/img/faces/4-image.jpg"},{"id":5,"email":"charles.morris@reqres.in","first_name":"Charles","last_name":"Morris","avatar":"https://reqres.in/img/faces/5-image.jpg"},{"id":6,"email":"tracey.ramos@reqres.in","first_name":"Tracey","last_name":"Ramos","avatar":"https://reqres.in/img/faces/6-image.jpg"}],"support":{"url":"https://reqres.in/#support-heading","text":"To keep ReqRes free, contributions towards server costs are appreciated!"}}

---------------------------------------------------------
feature: classpath:Users/get/user-get.feature
scenarios:  2 | passed:  2 | failed:  0 | time: 4,9797
---------------------------------------------------------

Karate version: 1.2.0.RC4
======================================================
elapsed:  12,85 | threads:    1 | thread time: 4,98 
features:     1 | skipped:    0 | efficiency: 0,39
scenarios:    2 | passed:     2 | failed: 0
======================================================

HTML report: (paste into browser to view) | Karate version: 1.2.0.RC4
file:///C:/Users/Usuario/Desktop/Karate/build/karate-reports/karate-summary.html
===================================================================

]]></system-out>
  <system-err><![CDATA[]]></system-err>
</testsuite>
